{"code":0,"message":"success","data":{"items":[{"id":1,"title":"养殖企业控制出栏生猪均重！积极调减能繁母","summary":"养殖企业控制出栏生猪均重！积极调减能繁母","source_name":"中国养猪网","source_url":"https://www.kuaishou.com/short-video/3x8hthdgtrt9fk9?utm_source=video&utm_medium=video&utm_campaign=","category":"行业动态","publish_date":"2026-06-30T20:38:13.592393"},{"id":2,"title":"狂飙！猪价飙涨7日，破八冲九！全年盈利有","summary":"狂飙！猪价飙涨7日，破八冲九！全年盈利有","source_name":"中国养猪网","source_url":"https://mp.weixin.qq.com/s/kc5OsBpUU9Usg6CiVbC02A","category":"市场分析","publish_date":"2026-06-30T20:38:13.592327"},{"id":3,"title":"生猪产能调控，从“稳基础”到“综合精调”的五年演进","summary":"生猪产能调控，从“稳基础”到“综合精调”的五年演进","source_name":"中国养猪网","source_url":"https://zt.zhuwang.com.cn/hyzti/zw20260502.html","category":"政策","publish_date":"2026-06-30T20:38:13.591985"},{"id":4,"title":"菲律宾猪瘟与福岛“核杂交野猪”威胁下的中国养猪业生物安全防线","summary":"菲律宾猪瘟与福岛“核杂交野猪”威胁下的中国养猪业生物安全防线","source_name":"中国养猪网","source_url":"https://zt.zhuwang.com.cn/hyzti/zw20260601.html","category":"市场分析","publish_date":"2026-06-30T20:38:13.591972"},{"id":5,"title":"新政下的母猪高效繁殖突围战","summary":"新政下的母猪高效繁殖突围战","source_name":"中国养猪网","source_url":"https://kiolutvzb.vzan.com/live/page/2062555504?v=687468431","category":"市场分析","publish_date":"2026-06-30T20:38:13.591890"},{"id":6,"title":"呵护猪群健康的欧洲经验及对中国的启示","summary":"呵护猪群健康的欧洲经验及对中国的启示","source_name":"中国养猪网","source_url":"https://kiolutvzb.vzan.com/live/page/358939455?v=1747122933921","category":"市场分析","publish_date":"2026-06-30T20:38:13.591719"},{"id":27,"title":"猪德尔塔冠状病毒（PDCoV）鉴别诊断技术要点","summary":"猪德尔塔冠状病毒（PDCoV）鉴别诊断技术要点","source_name":"中国养猪网","source_url":"https://news.zhuwang.com.cn/chuanran/20260630/644963.html","category":"市场分析","publish_date":"2026-06-30T00:00:00"},{"id":26,"title":"从四诊合参到脏腑辨证：中兽医在规模化猪场疾病防控中的","summary":"从四诊合参到脏腑辨证：中兽医在规模化猪场疾病防控中的","source_name":"中国养猪网","source_url":"https://news.zhuwang.com.cn/zhubingfz/20260630/644964.html","category":"市场分析","publish_date":"2026-06-30T00:00:00"},{"id":25,"title":"断奶仔猪饲养管理技术要点总结","summary":"断奶仔猪饲养管理技术要点总结","source_name":"中国养猪网","source_url":"https://jishu.zhuwang.com.cn/kxyangzhu/20260630/644958.html","category":"市场分析","publish_date":"2026-06-30T00:00:00"},{"id":24,"title":"丹系猪断奶成活率不足80%，这个PIC猪场却做到了","summary":"丹系猪断奶成活率不足80%，这个PIC猪场却做到了","source_name":"中国养猪网","source_url":"https://jishu.zhuwang.com.cn/kxyangzhu/20260630/644960.html","category":"市场分析","publish_date":"2026-06-30T00:00:00"},{"id":23,"title":"规模化猪场常用消毒剂优缺点剖析","summary":"规模化猪场常用消毒剂优缺点剖析","source_name":"中国养猪网","source_url":"https://jishu.zhuwang.com.cn/kxyangzhu/20260630/644967.html","category":"市场分析","publish_date":"2026-06-30T00:00:00"},{"id":22,"title":"初乳管理关键技术要点：泰国规模化猪场经验分享","summary":"初乳管理关键技术要点：泰国规模化猪场经验分享","source_name":"中国养猪网","source_url":"https://jishu.zhuwang.com.cn/siliaoyy/20260630/644959.html","category":"市场分析","publish_date":"2026-06-30T00:00:00"},{"id":21,"title":"新玉米喂猪的常见问题与科学使用要点","summary":"新玉米喂猪的常见问题与科学使用要点","source_name":"中国养猪网","source_url":"https://jishu.zhuwang.com.cn/siliaoyy/20260630/644962.html","category":"市场分析","publish_date":"2026-06-30T00:00:00"},{"id":20,"title":"2026年06月30日全国各省市猪白条肉价格行情走势","summary":"2026年06月30日全国各省市猪白条肉价格行情走势","source_name":"中国养猪网","source_url":"https://hangqing.zhuwang.com.cn/zhurou/20260630/644891.html","category":"价格预测","publish_date":"2026-06-30T00:00:00"},{"id":19,"title":"2026年06月30日(10至14公斤)仔猪价格行情走势","summary":"2026年06月30日(10至14公斤)仔猪价格行情走势","source_name":"中国养猪网","source_url":"https://hangqing.zhuwang.com.cn/zizhu/20260630/644888.html","category":"价格预测","publish_date":"2026-06-30T00:00:00"},{"id":18,"title":"2026年06月30日(15至19公斤)仔猪价格行情走势","summary":"2026年06月30日(15至19公斤)仔猪价格行情走势","source_name":"中国养猪网","source_url":"https://hangqing.zhuwang.com.cn/zizhu/20260630/644889.html","category":"价格预测","publish_date":"2026-06-30T00:00:00"},{"id":17,"title":"2026年06月30日(20至30公斤)仔猪价格行情走势","summary":"2026年06月30日(20至30公斤)仔猪价格行情走势","source_name":"中国养猪网","source_url":"https://hangqing.zhuwang.com.cn/zizhu/20260630/644890.html","category":"价格预测","publish_date":"2026-06-30T00:00:00"},{"id":16,"title":"2026年06月30日全国玉米价格行情走势汇总","summary":"2026年06月30日全国玉米价格行情走势汇总","source_name":"中国养猪网","source_url":"https://hangqing.zhuwang.com.cn/yumi/20260630/644943.html","category":"价格预测","publish_date":"2026-06-30T00:00:00"},{"id":15,"title":"2026年06月30日全国豆粕价格行情走势汇总","summary":"2026年06月30日全国豆粕价格行情走势汇总","source_name":"中国养猪网","source_url":"https://hangqing.zhuwang.com.cn/doupo/20260630/644942.html","category":"价格预测","publish_date":"2026-06-30T00:00:00"},{"id":14,"title":"2026年06月30日全国土杂猪生猪价格行情涨跌表","summary":"2026年06月30日全国土杂猪生猪价格行情涨跌表","source_name":"中国养猪网","source_url":"https://hangqing.zhuwang.com.cn/shengzhu/20260630/644944.html","category":"市场分析","publish_date":"2026-06-30T00:00:00"}],"total":79,"page":1,"page_size":20,"total_pages":4}}